[
    {
      "environment": "development",
      "name": "development",
      "type": "postgres",
      "host": "localhost",
      "database": "core-boilerplate-dev",
      "username": "postgres",
      "password": "",
      "synchronize": true,
      "logging": ["error"],
      "entities": ["src/entity/*.ts"],
      "migrations": ["src/migration/*.ts"],
      "cli": {
        "entitiesDir": "src/entity",
        "migrationsDir": "src/migrations"
      }
    },
    {
      "environment": "test",
      "name": "test",
      "type": "postgres",
      "host": "localhost",
      "database": "core-boilerplate-test",
      "username": "postgres",
      "password": "",
      "synchronize": true,
      "logging": ["error"],
      "entities": ["src/entity/*.ts"],
      "migrations": ["src/migration/*.ts"],
      "cli": {
        "entitiesDir": "src/entity",
        "migrationsDir": "src/migrations"
      },
      "dropSchema": true
    },
    {
      "environment": "production",
      "name": "production",
      "type": "postgres",
      "host": "localhost",
      "database": "core-boilerplate-production",
      "username": "postgres",
      "password": "",
      "synchronize": false,
      "logging": ["error"],
      "entities": ["build/entity/*.js"],
      "migrations": ["build/migration/*.js"],
      "cli": {
        "entitiesDir": "build/entity",
        "migrationsDir": "build/migrations"
      }
    }
  ]
